{
  "contacts": [
    {
      "id": "1",
      "key": "1",
      "name": "Иван",
      "lastName": "Иванов",
      "phone": "+79605627432",
      "address": "Красноярск, пр. Свободный, 50",
      "comment": ""
    },
    {
      "id": "2",
      "key": "2",
      "name": "Иван",
      "lastName": "Иванов",
      "phone": "+79605627432",
      "address": "Красноярск, пр. Свободный, 50",
      "comment": ""
    },
    {
      "id": "3",
      "key": "3",
      "name": "Иван",
      "lastName": "Иванов",
      "phone": "+79605627432",
      "address": "Красноярск, пр. Свободный, 50",
      "comment": ""
    },
    {
      "id": "4",
      "key": "4",
      "name": "Иван",
      "lastName": "Иванов",
      "phone": "+79605627432",
      "address": "Красноярск, пр. Свободный, 50",
      "comment": ""
    },
    {
      "id": "5",
      "key": "5",
      "name": "Иван",
      "lastName": "Иванов",
      "phone": "+79605627432",
      "address": "Красноярск, пр. Свободный, 50",
      "comment": ""
    }
  ]
}